{
	"author": "hyssFlatApp",
	"email": "prisiliaparam@gmail.com",
	"website": "https://bitbucket.org/mithlia/hyss-flat-app/src/master/plugins",
	"version": "1.0.1",
	"releaseDate": "2020-08-21",
	"license": "MIT",
	"compatible": "1.0.1",
	"notes": ""
}
